[
  {
    "tag": "alternative-statement",
    "guarded_commands": [
      {
        "tag": "guarded-command",
        "guard": {
          "tag": "geq",
          "operands": [
            {
              "tag": "identifier",
              "name": "x"
            },
            {
              "tag": "identifier",
              "name": "y"
            }
          ]
        },
        "command": [
          {
            "tag": "assignment",
            "varnames": [
              "m"
            ],
            "values": [
              {
                "tag": "identifier",
                "name": "x"
              }
            ]
          }
        ]
      },
      {
        "tag": "guarded-command",
        "guard": {
          "tag": "ge",
          "operands": [
            {
              "tag": "identifier",
              "name": "x"
            },
            {
              "tag": "identifier",
              "name": "y"
            }
          ]
        },
        "command": [
          {
            "tag": "assignment",
            "varnames": [
              "m"
            ],
            "values": [
              {
                "tag": "identifier",
                "name": "y"
              }
            ]
          }
        ]
      }
    ]
  }
]