{Assign
  [Ids
    ID(x)
  ]
  [Values
    ID(X)
  ]
}
{Assign
  [Ids
    ID(y)
  ]
  [Values
    {-
      {+
        {+
          {*
            ID(x),
            ID(x)
          },
          {*
            Num(5),
            ID(x)
          }
        },
        Num(10)
      },
      Num(30)
    }
  ]
}
